Organizando um projeto de análise de dados com RStudio
…
No começo do segundo arquivo, com a análise de dados inicial, eu preparo o script pra ser rodado sem ter a necessidade de rodar o primeiro script (01-data_wrangling.R).

# load libraries
library(tidyverse)

# read data in
bird_data_narrower <- read_csv("processed_data/bird_data_narrower.csv")

Geralmente contagens em geral é uma boa maneira de explorar seus dados.

# how many observations per year
bird_data_narrower %>%
  count(year)

## # A tibble: 48 x 2
##     year     n
##    <dbl> <int>
##  1  1821     2
##  2  1964     3
##  3  1965     8
##  4  1973    94
##  5  1974   159
##  6  1975   291
##  7  1977   112
##  8  1978  1098
##  9  1979   435
## 10  1980    84
## # … with 38 more rows
…
